…
commute_summary

## # A tibble: 102 x 3
## # Groups:   state [51]
##    state      mode  Percent
##    <chr>      <chr>   <dbl>
##  1 alabama    Bike    0.235
##  2 alabama    Walk    1.33 
##  3 alaska     Bike    1.43 
##  4 alaska     Walk    5.03 
##  5 arizona    Bike    0.724
##  6 arizona    Walk    2.10 
##  7 arkansas   Bike    0.155
##  8 arkansas   Walk    2.05 
##  9 california Bike    0.983
## 10 california Walk    2.36 
## # … with 92 more rows
